…
# data cleaning

- we need *net worth* to be numeric so we will remove the characters

``` r
(new_data<-new_data |> 
  mutate(net_worth= readr::parse_number(`Net Worth`)) |> 
  relocate(net_worth,`Net Worth`)) # removes character strings from the data
#> # A tibble: 500 x 8
#>    net_worth `Net Worth`  Rank Name      Change   Age Source `Country/Territory`
#>        <dbl> <chr>       <dbl> <chr>     <chr>  <dbl> <chr>  <chr>              
#>  1     232.  $232.2 B        1 Bernard ~  $0M ~    74 LVMH   France             
#>  2     185.  $184.7 B        2 Elon Musk  $0M ~    51 Tesla~ United States      
#>  3     139.  $139.1 B        3 Jeff Bez~  $0M ~    59 Amazon United States      
#>  4     128.  $127.8 B        4 Larry El~  $0M ~    78 Oracle United States      
#>  5     116.  $116.3 B        5 Warren B~  $0M ~    92 Berks~ United States      
#>  6     114.  $114.3 B        6 Bill Gat~  $0M ~    67 Micro~ United States      
#>  7     104.  $104.2 B        7 Larry Pa~  $0M ~    50 Google United States      
#>  8      99.1 $99.1 B         8 Sergey B~  $0M ~    49 Google United States      
#>  9      98.4 $98.4 B         9 Steve Ba~  $0M ~    67 Micro~ United States      
#> 10      97.3 $97.3 B        10 Carlos S~  $0M ~    83 Telec~ Mexico             
#> # i 490 more rows
```
…
