…
# poisson dataset


```r
df<-read.table("canada.txt",sep="",header=TRUE) |> 
  mutate_if(is.character,as.factor) |> 
  as_tibble()
df
#> # A tibble: 36 x 5
#>       id age   smoke           pop  dead
#>    <int> <fct> <fct>         <int> <int>
#>  1     1 40-44 no              656    18
#>  2     2 45-59 no              359    22
#>  3     3 50-54 no              249    19
#>  4     4 55-59 no              632    55
#>  5     5 60-64 no             1067   117
#>  6     6 65-69 no              897   170
#>  7     7 70-74 no              668   179
#>  8     8 75-79 no              361   120
#>  9     9 80+   no              274   120
#> 10    10 40-44 cigarPipeOnly   145     2
#> # i 26 more rows
```
…
