…
#### tidyverse
+ dplyr package contains the `select` statement that is used to call of the required variables


```r
## use select statement
df_tidy |> select(loan_amnt,loan_status,grade)
#> # A tibble: 30 x 3
#>    loan_amnt loan_status grade
#>        <dbl>       <dbl> <chr>
#>  1      2650           0 C    
#>  2     13000           1 B    
#>  3     16750           0 C    
#>  4      2500           0 C    
#>  5     12000           0 C    
#>  6      5000           0 B    
#>  7      7000           0 C    
#>  8     12000           0 C    
#>  9     12000           0 A    
#> 10      7000           0 A    
#> # i 20 more rows
```
…
