…
and `\(s^2(\hat{p}_h) = \mathbf{x'_h[I(\hat{\beta})]^{-1}x_h}\)`

For new observation, we can have a cutoff point to decide whether y = 0 or 1.

# setup

```r
library(tidyverse)

df<-readxl::read_xlsx("logistic.xlsx") |> 
  mutate_if(is.character,as.factor) |> 
  rename(SEX="SEX JAN",
         STATUS="Default Status")
df
#> # A tibble: 6,824 x 7
#>    `RTGS EXPOSURE` STATUS SEX    `Marital Status` Profession   `Gross Income`
#>              <dbl>  <dbl> <fct>  <fct>            <fct>                 <dbl>
#>  1          1057.       1 MALE   Single           Blue Collar             652
#>  2           207.       1 MALE   Married          Blue Collar             460
#>  3          2162.       1 FEMALE Single           White Collar            468
#>  4            41.9      1 FEMALE Married          White Collar            733
#>  5            10.8      1 FEMALE Married          White Collar            465
#>  6           181.       1 FEMALE Married          White Collar            460
#>  7         14583.       0 MALE   Single           White Collar           8000
#>  8         53471.       0 FEMALE Other            Blue Collar            2600
#>  9          2156.       0 FEMALE Single           White Collar            773
#> 10          1114.       0 MALE   Married          Blue Collar             575
#> # i 6,814 more rows
#> # i 1 more variable: `Age Group` <fct>
```
…
