…
mov <- out_new |>
  select(-1) |>
  mutate(release_date = mdy(release_date)) |> #mdy is the setup of the date variable
  mutate_if(is.character,as.factor) |> 
  mutate(roi = worldwide_gross / production_budget) |>
  mutate(pct_domestic = domestic_gross / worldwide_gross) |>
  mutate(year = year(release_date)) |> 
  mutate(month = month(release_date)) |> 
  mutate(day = as.factor(wday(release_date))) |> 
  arrange(desc(release_date)) |>
  filter(worldwide_gross > 0) |>
  filter(!is.na(distributor)) |>
  filter(!is.na(mpaa_rating))
mov
#> # A tibble: 3,202 x 13
#>    release_date movie           production_budget domestic_gross worldwide_gross
#>    <date>       <fct>                       <dbl>          <dbl>           <dbl>
#>  1 2018-10-12   First Man                60000000       30000050        55500050
#>  2 2018-10-12   Goosebumps 2: ~          35000000       28804812        39904812
#>  3 2018-10-05   Venom                   100000000      171125095       461825095
#>  4 2018-10-05   A Star is Born           36000000      126181246       200881246
#>  5 2018-09-28   Smallfoot                80000000       66361035       137161035
#>  6 2018-09-28   Night School             29000000       66906825        84406825
#>  7 2018-09-28   Hell Fest                 5500000       10751601        12527795
#>  8 2018-09-14   The Predator             88000000       50787159       127987159
#>  9 2018-09-14   White Boy Rick           30000000       23851700        23851700
#> 10 2018-08-17   Mile 22                  35000000       36108758        64708758
#> # i 3,192 more rows
#> # i 8 more variables: distributor <fct>, mpaa_rating <fct>, genre <fct>,
#> #   roi <dbl>, pct_domestic <dbl>, year <dbl>, month <dbl>, day <fct>
```
…
