…
# creating factors and modifying them

- lets make use of `cut` from base R to turn numerics to factors
- i find this function very useful in most cases

#

```r
out_new<-df |> 
  mutate(age_group=cut(age, c(min(df$age)-1, 30,45,55,65,75, max(df$age)+1), 
                        c("< 30", "30-44","45-54","55-64","65-74","75+"), right = FALSE))
# check this out
out_new |> 
  select(age,age_group)
#> # A tibble: 29,091 x 2
#>      age age_group
#>    <dbl> <fct>    
#>  1    33 30-44    
#>  2    31 30-44    
#>  3    24 < 30     
#>  4    39 30-44    
#>  5    24 < 30     
#>  6    28 < 30     
#>  7    22 < 30     
#>  8    22 < 30     
#>  9    28 < 30     
#> 10    22 < 30     
#> # i 29,081 more rows
```
…
