…
<img src="staticunnamed-chunk-27-1.png" width="1023.999552" style="display: block; margin: auto;" />

# method 2 : using R’s nested data capabilities

``` r
# created nested dataframes 
dental_nested <- Orthodont %>%  
              group_by(Subject) %>% 
              nest() 

dental_nested
#> # A tibble: 27 x 2
#> # Groups:   Subject [27]
#>    Subject data            
#>    <ord>   <list>          
#>  1 M01     <tibble [4 x 3]>
#>  2 M02     <tibble [4 x 3]>
#>  3 M03     <tibble [4 x 3]>
#>  4 M04     <tibble [4 x 3]>
#>  5 M05     <tibble [4 x 3]>
#>  6 M06     <tibble [4 x 3]>
#>  7 M07     <tibble [4 x 3]>
#>  8 M08     <tibble [4 x 3]>
#>  9 M09     <tibble [4 x 3]>
#> 10 M10     <tibble [4 x 3]>
#> # i 17 more rows
```

# create linear models for each subject or individual

``` r
dental_models<-dental_nested %>% 
  mutate(
    model=map(data,~lm(distance~age,data=.x))
  )
dental_models
#> # A tibble: 27 x 3
#> # Groups:   Subject [27]
#>    Subject data             model 
#>    <ord>   <list>           <list>
#>  1 M01     <tibble [4 x 3]> <lm>  
#>  2 M02     <tibble [4 x 3]> <lm>  
#>  3 M03     <tibble [4 x 3]> <lm>  
#>  4 M04     <tibble [4 x 3]> <lm>  
#>  5 M05     <tibble [4 x 3]> <lm>  
#>  6 M06     <tibble [4 x 3]> <lm>  
#>  7 M07     <tibble [4 x 3]> <lm>  
#>  8 M08     <tibble [4 x 3]> <lm>  
#>  9 M09     <tibble [4 x 3]> <lm>  
#> 10 M10     <tibble [4 x 3]> <lm>  
#> # i 17 more rows
```

# coefficients of multiple models

``` r
dental_models %>%  
  mutate(coef = map(model,~tidy(.x))) %>% 
  unnest(coef) 
#> # A tibble: 54 x 8
#> # Groups:   Subject [27]
#>    Subject data             model  term     estimate std.error statistic p.value
#>    <ord>   <list>           <list> <chr>       <dbl>     <dbl>     <dbl>   <dbl>
#>  1 M01     <tibble [4 x 3]> <lm>   (Interc~   17.3       3.85      4.50  0.0461 
#>  2 M01     <tibble [4 x 3]> <lm>   age         0.95      0.343     2.77  0.109  
#>  3 M02     <tibble [4 x 3]> <lm>   (Interc~   14.8       2.62      5.67  0.0297 
#>  4 M02     <tibble [4 x 3]> <lm>   age         0.775     0.233     3.32  0.0798 
#>  5 M03     <tibble [4 x 3]> <lm>   (Interc~   16         3.55      4.51  0.0459 
#>  6 M03     <tibble [4 x 3]> <lm>   age         0.75      0.316     2.37  0.141  
#>  7 M04     <tibble [4 x 3]> <lm>   (Interc~   24.7       2.23     11.1   0.00803
#>  8 M04     <tibble [4 x 3]> <lm>   age         0.175     0.198     0.882 0.471  
#>  9 M05     <tibble [4 x 3]> <lm>   (Interc~   13.7       3.57      3.82  0.0622 
#> 10 M05     <tibble [4 x 3]> <lm>   age         0.85      0.318     2.67  0.116  
#> # i 44 more rows
```

# model performance

``` r
library(broom)
model_perf<-dental_models %>% 
  mutate(coef=map(model,~glance(.x))) %>% 
  unnest(coef);model_perf
#> # A tibble: 27 x 15
#> # Groups:   Subject [27]
#>    Subject data     model  r.squared adj.r.squared sigma statistic p.value    df
#>    <ord>   <list>   <list>     <dbl>         <dbl> <dbl>     <dbl>   <dbl> <dbl>
#>  1 M01     <tibble> <lm>       0.793        0.690  1.53      7.68  0.109       1
#>  2 M02     <tibble> <lm>       0.847        0.770  1.04     11.0   0.0798      1
#>  3 M03     <tibble> <lm>       0.738        0.607  1.41      5.63  0.141       1
#>  4 M04     <tibble> <lm>       0.280       -0.0800 0.887     0.778 0.471       1
#>  5 M05     <tibble> <lm>       0.781        0.672  1.42      7.14  0.116       1
#>  6 M06     <tibble> <lm>       0.992        0.988  0.194   243.    0.00409     1
#>  7 M07     <tibble> <lm>       0.898        0.847  0.851    17.7   0.0522      1
#>  8 M08     <tibble> <lm>       0.324       -0.0144 1.71      0.957 0.431       1
#>  9 M09     <tibble> <lm>       0.311       -0.0339 4.59      0.902 0.443       1
#> 10 M10     <tibble> <lm>       0.9          0.85   0.791    18.0   0.0513      1
#> # i 17 more rows
#> # i 6 more variables: logLik <dbl>, AIC <dbl>, BIC <dbl>, deviance <dbl>,
#> #   df.residual <int>, nobs <int>
```
…
