…
### Select variables using `dplyr::select()`

When you work with large datasets with many columns, it is sometimes easier to select only the necessary columns to reduce the dataset size. This is possible by creating a smaller dataset (fewer variables). Then you can work on the initial part of data analysis with this smaller dataset. This will greatly help data exploration.

{{% callout note %}}
however for this exercise we gonna need all the variables for exploration so we will select everything
{{% /callout %}}


```r
(new_data <- new_data|> 
  dplyr::select(everything()))
#> # A tibble: 947 x 8
#>    recipe calories carbohydrate sugar protein category     servings high_traffic
#>    <chr>     <dbl>        <dbl> <dbl>   <dbl> <chr>        <chr>    <chr>       
#>  1 001        NA          NA    NA      NA    Pork         6        High        
#>  2 002        35.5        38.6   0.66    0.92 Potato       4        High        
#>  3 003       914.         42.7   3.09    2.88 Breakfast    1        <NA>        
#>  4 004        97.0        30.6  38.6     0.02 Beverages    4        High        
#>  5 005        27.0         1.85  0.8     0.53 Beverages    4        <NA>        
#>  6 006       691.          3.46  1.65   53.9  One Dish Me~ 2        High        
#>  7 007       184.         48.0   9.75   46.7  Chicken Bre~ 4        <NA>        
#>  8 008       299.          3.17  0.4    32.4  Lunch/Snacks 4        <NA>        
#>  9 009       539.          3.78  3.37    3.79 Pork         6        High        
#> 10 010       248.         48.5   3.99  114.   Chicken      2        <NA>        
#> # i 937 more rows
```

### extending `select` verb

{{% callout note %}}
sometimes it is necessary to perform conditional selection on variables because
+ at times you need only numerical variables for correlations
+ you may only need categorical variables for testing independence
{{% /callout %}}
> for such a case we can use functions such as `select_if`


```r
new_data |> select_if(is.numeric)
#> # A tibble: 947 x 4
#>    calories carbohydrate sugar protein
#>       <dbl>        <dbl> <dbl>   <dbl>
#>  1     NA          NA    NA      NA   
#>  2     35.5        38.6   0.66    0.92
#>  3    914.         42.7   3.09    2.88
#>  4     97.0        30.6  38.6     0.02
#>  5     27.0         1.85  0.8     0.53
#>  6    691.          3.46  1.65   53.9 
#>  7    184.         48.0   9.75   46.7 
#>  8    299.          3.17  0.4    32.4 
#>  9    539.          3.78  3.37    3.79
#> 10    248.         48.5   3.99  114.  
#> # i 937 more rows
```
…
### Rename variable using `rename()`

{{% callout note %}}
Now, we want to rename

-   variable category to `meal_category`
-   variable log_calories to `log_of_calories`
{{% /callout %}}


```r
(new_data <- new_data |> 
  rename(meal_category = category,
         log_of_calories = log_calories))
#> # A tibble: 947 x 9
#>    recipe calories carbohydrate sugar protein meal_category  servings
#>    <fct>     <dbl>        <dbl> <dbl>   <dbl> <fct>          <fct>   
#>  1 001        NA          NA    NA      NA    Pork           6       
#>  2 002        35.5        38.6   0.66    0.92 Potato         4       
#>  3 003       914.         42.7   3.09    2.88 Breakfast      1       
#>  4 004        97.0        30.6  38.6     0.02 Beverages      4       
#>  5 005        27.0         1.85  0.8     0.53 Beverages      4       
#>  6 006       691.          3.46  1.65   53.9  One Dish Meal  2       
#>  7 007       184.         48.0   9.75   46.7  Chicken Breast 4       
#>  8 008       299.          3.17  0.4    32.4  Lunch/Snacks   4       
#>  9 009       539.          3.78  3.37    3.79 Pork           6       
#> 10 010       248.         48.5   3.99  114.   Chicken        2       
#> # i 937 more rows
#> # i 2 more variables: high_traffic <fct>, log_of_calories <dbl>
```

## Sorting data and selecting observation

The function `arrange()` can sort the data. And the function `filter()`allows you to select observations based on your criteria.

### Sorting data using `arrange()`

We can sort data in ascending or descending order using the `arrange()` function. 


```r
new_data|> 
  arrange(log_of_calories) |> 
  relocate(log_of_calories)
#> # A tibble: 947 x 9
#>    log_of_calories recipe calories carbohydrate sugar protein meal_category 
#>              <dbl> <fct>     <dbl>        <dbl> <dbl>   <dbl> <fct>         
#>  1          -1.97  229        0.14        18.1  11.2    87.3  Lunch/Snacks  
#>  2          -1.20  501        0.3          5.19  0.96    1.51 Beverages     
#>  3          -0.616 653        0.54        30.6  10.4     0.36 Beverages     
#>  4          -0.528 655        0.59        18.8  58      16.4  Dessert       
#>  5          -0.446 850        0.64        75.6   3.26    6.95 Breakfast     
#>  6          -0.274 277        0.76         1.9   3.76    0.05 Vegetable     
#>  7          -0.223 670        0.8         12.3   1.33    6.21 Chicken Breast
#>  8           0.445 588        1.56        59.9   6.57   35    Pork          
#>  9           0.761 388        2.14        20.1   0.16    1.42 Beverages     
#> 10           1.09  514        2.98         9.81 28.6    19.1  Chicken Breast
#> # i 937 more rows
#> # i 2 more variables: servings <fct>, high_traffic <fct>
```


{{% callout note %}}
+ this will like arrange the data based on log_calories from smallest to biggest
+ we can arrange from biggest to smallest as well using `desc()`
{{% /callout %}}


```r
new_data|> 
  arrange(desc(log_of_calories)) |> 
  relocate(log_of_calories)
#> # A tibble: 947 x 9
#>    log_of_calories recipe calories carbohydrate sugar protein meal_category 
#>              <dbl> <fct>     <dbl>        <dbl> <dbl>   <dbl> <fct>         
#>  1            8.20 926       3633.        29.1   0.35    2.32 Chicken       
#>  2            7.97 125       2906.         3.52  1.89  179.   Pork          
#>  3            7.90 227       2703.         6.4   2.17   28.2  Pork          
#>  4            7.83 072       2508.        18.1  10.6    84.2  Chicken       
#>  5            7.75 908       2332.         7.47  3.62   34.3  One Dish Meal 
#>  6            7.73 940       2283.        34.3   5.12   17.6  Chicken Breast
#>  7            7.73 357       2283.         4.5   4.16   31.2  One Dish Meal 
#>  8            7.66 056       2122.        26.0   0.52   81.4  Pork          
#>  9            7.64 098       2082.         8.09  4.78   28.5  One Dish Meal 
#> 10            7.63 782       2068.        34.2   1.46   10.0  Potato        
#> # i 937 more rows
#> # i 2 more variables: servings <fct>, high_traffic <fct>
```

### Select observation using `filter()`

{{% callout note %}}
We use the `filter()` function to select observations based on certain criteria. Here, in this example, we will create a new dataset (which we will name as `new_data_m`) that contains observations where high_traffic is `NA` ,in this case `NA` implies low
{{% /callout %}}



```r
new_data_m <- new_data|> 
  filter(is.na(high_traffic)) |> 
  relocate(high_traffic)
new_data_m
#> # A tibble: 373 x 9
#>    high_traffic recipe calories carbohydrate  sugar protein meal_category 
#>    <fct>        <fct>     <dbl>        <dbl>  <dbl>   <dbl> <fct>         
#>  1 <NA>         003       914.         42.7    3.09    2.88 Breakfast     
#>  2 <NA>         005        27.0         1.85   0.8     0.53 Beverages     
#>  3 <NA>         007       184.         48.0    9.75   46.7  Chicken Breast
#>  4 <NA>         008       299.          3.17   0.4    32.4  Lunch/Snacks  
#>  5 <NA>         010       248.         48.5    3.99  114.   Chicken       
#>  6 <NA>         011       170.         17.6    4.1     0.91 Beverages     
#>  7 <NA>         012       156.          8.27   9.78   11.6  Breakfast     
#>  8 <NA>         020       128.         27.6    1.51    8.91 Chicken       
#>  9 <NA>         022        40.5        87.9  105.     11.9  Dessert       
#> 10 <NA>         023        82.7         3.17   7.95   26.0  Breakfast     
#> # i 363 more rows
#> # i 2 more variables: servings <fct>, log_of_calories <dbl>
```
…
To calculate the frequencies for two variables for the recipe dataset

-   category
-   high_traffic


```r
new_data|> 
  group_by(meal_category)|>
  count(high_traffic, sort = TRUE)
#> # A tibble: 22 x 3
#> # Groups:   meal_category [11]
#>    meal_category  high_traffic     n
#>    <fct>          <fct>        <int>
#>  1 Beverages      <NA>            87
#>  2 Potato         High            83
#>  3 Vegetable      High            82
#>  4 Pork           High            77
#>  5 Breakfast      <NA>            73
#>  6 Meat           High            59
#>  7 Lunch/Snacks   High            57
#>  8 Dessert        High            53
#>  9 Chicken Breast <NA>            52
#> 10 One Dish Meal  High            52
#> # i 12 more rows
```

or


```r
new_data |> 
  count(meal_category, high_traffic, sort = TRUE)
#> # A tibble: 22 x 3
#>    meal_category  high_traffic     n
#>    <fct>          <fct>        <int>
#>  1 Beverages      <NA>            87
#>  2 Potato         High            83
#>  3 Vegetable      High            82
#>  4 Pork           High            77
#>  5 Breakfast      <NA>            73
#>  6 Meat           High            59
#>  7 Lunch/Snacks   High            57
#>  8 Dessert        High            53
#>  9 Chicken Breast <NA>            52
#> 10 One Dish Meal  High            52
#> # i 12 more rows
```
…
