…
When using `ggplot2` to generate figures, you will always begin by calling the `ggplot()` function. You'll then specify your dataset within the `ggplot()` function. Then, before making your plot you will also have to specify what **geom** type you're interested in plotting. We'll focus on a few basic geoms in the next section and give examples of each plot type (geom), but for now we'll just work with a single geom: `geom_point`. 

`geom_point` is most helpful for creating scatterplots. As a reminder from an earlier lesson, scatterplots are useful when you're looking at the relationship between two numeric variables. Within `geom` you will specify the arguments needed to tell `ggplot2` how you want your plot to look. 

You will map your variables using the aesthetic argument **`aes`**. We'll walk through examples below to make all of this clear. However, get comfortable with the overall look of the code now.

# Example Dataset: `diamonds`

To build your first plot in `ggplot2` we'll make use of the fact that there are some datasets already available in R. One frequently-used dataset is known as `diamonds`. This dataset contains prices and other attributes of 53,940 diamonds, with each row containing information about a different diamond. If you look at the first few rows of data, you can get an idea of what data are included in this dataset. 


```r
diamonds <- as_tibble(diamonds)
diamonds
#> # A tibble: 53,940 x 10
#>    carat cut       color clarity depth table price     x     y     z
#>    <dbl> <ord>     <ord> <ord>   <dbl> <dbl> <int> <dbl> <dbl> <dbl>
#>  1  0.23 Ideal     E     SI2      61.5    55   326  3.95  3.98  2.43
#>  2  0.21 Premium   E     SI1      59.8    61   326  3.89  3.84  2.31
#>  3  0.23 Good      E     VS1      56.9    65   327  4.05  4.07  2.31
#>  4  0.29 Premium   I     VS2      62.4    58   334  4.2   4.23  2.63
#>  5  0.31 Good      J     SI2      63.3    58   335  4.34  4.35  2.75
#>  6  0.24 Very Good J     VVS2     62.8    57   336  3.94  3.96  2.48
#>  7  0.24 Very Good I     VVS1     62.3    57   336  3.95  3.98  2.47
#>  8  0.26 Very Good H     SI1      61.9    55   337  4.07  4.11  2.53
#>  9  0.22 Fair      E     VS2      65.1    61   337  3.87  3.78  2.49
#> 10  0.23 Very Good H     VS1      59.4    61   338  4     4.05  2.39
#> # i 53,930 more rows
```
…
