…
## Selecting all data in R


```r
data2 |> select(everything())
#> # A tibble: 25 x 5
#>    recipe calories sugar protein category      
#>    <chr>     <dbl> <dbl>   <dbl> <chr>         
#>  1 624       237.   0.81    9.07 Potato        
#>  2 102       199.   0.39   39.1  Vegetable     
#>  3 427       187.  87.0     4.49 Dessert       
#>  4 324        49.5  4.69   53.3  Breakfast     
#>  5 912        NA   NA      NA    Dessert       
#>  6 380        75.9  8.18   17.6  Meat          
#>  7 609        NA   NA      NA    Chicken Breast
#>  8 671       482.   1.34   51.9  Chicken       
#>  9 683       147.   0.94   54    Chicken       
#> 10 208        21.0  9.8     0.82 Beverages     
#> # i 15 more rows
```

## selecting a subset of variables in R


```r
data2 |> 
  select(recipe,sugar)
#> # A tibble: 25 x 2
#>    recipe sugar
#>    <chr>  <dbl>
#>  1 624     0.81
#>  2 102     0.39
#>  3 427    87.0 
#>  4 324     4.69
#>  5 912    NA   
#>  6 380     8.18
#>  7 609    NA   
#>  8 671     1.34
#>  9 683     0.94
#> 10 208     9.8 
#> # i 15 more rows
```
…
```r
data2 |> 
  filter(!is.na(protein))
#> # A tibble: 22 x 5
#>    recipe calories sugar protein category 
#>    <chr>     <dbl> <dbl>   <dbl> <chr>    
#>  1 624       237.   0.81    9.07 Potato   
#>  2 102       199.   0.39   39.1  Vegetable
#>  3 427       187.  87.0     4.49 Dessert  
#>  4 324        49.5  4.69   53.3  Breakfast
#>  5 380        75.9  8.18   17.6  Meat     
#>  6 671       482.   1.34   51.9  Chicken  
#>  7 683       147.   0.94   54    Chicken  
#>  8 208        21.0  9.8     0.82 Beverages
#>  9 633       106.   0.07    7.55 Vegetable
#> 10 859       388.   4.62   13.9  Pork     
#> # i 12 more rows
```
…
## basic arithmetic in R using `mutate()`


```r
data2 |> 
  mutate(diff_sugar_protein=sugar-protein) |> 
  select(category,diff_sugar_protein)
#> # A tibble: 25 x 2
#>    category       diff_sugar_protein
#>    <chr>                       <dbl>
#>  1 Potato                      -8.26
#>  2 Vegetable                  -38.7 
#>  3 Dessert                     82.5 
#>  4 Breakfast                  -48.6 
#>  5 Dessert                     NA   
#>  6 Meat                        -9.46
#>  7 Chicken Breast              NA   
#>  8 Chicken                    -50.6 
#>  9 Chicken                    -53.1 
#> 10 Beverages                    8.98
#> # i 15 more rows
```
…
## Inner join in R


```r
dplyr::inner_join(data1,data2,by=join_by(recipe)) |> 
  select(recipe,carbohydrate,sugar,protein,ends_with(".x"))
#> # A tibble: 25 x 6
#>    recipe carbohydrate sugar protein calories.x category.x    
#>    <chr>         <dbl> <dbl>   <dbl>      <dbl> <chr>         
#>  1 624            9.67  0.81    9.07      237.  Potato        
#>  2 102           87.7   0.39   39.1       199.  Vegetable     
#>  3 427           19.1  87.0     4.49      187.  Dessert       
#>  4 324           66.6   4.69   53.3        49.5 Breakfast     
#>  5 912           NA    NA      NA          NA   Dessert       
#>  6 380           22.5   8.18   17.6        75.9 Meat          
#>  7 609           NA    NA      NA          NA   Chicken Breast
#>  8 671           12.7   1.34   51.9       482.  Chicken       
#>  9 683            9.72  0.94   54         147.  Chicken       
#> 10 208            1.26  9.8     0.82       21.0 Beverages     
#> # i 15 more rows
```
…
